anderes,another,,lesson06
noch nie,never before,,lesson06

Das geht.,This works.,phrase,lesson06
Das geht auch.,This also works.,phrase,lesson06
Das geht nicht.,This doesn't work.,phrase,lesson06
wichtig,important,,lesson06
mitbringen,to bring with,,lesson06

hinten,behind,,lesson06
vorn,in front,,lesson06
links,on the left,,lesson06
rechts,on the right,,lesson06
oben,above,,lesson06
unten,at the bottom,,lesson06

der Job,job,noun,lesson06
die Deutsche,female German,noun,lesson06
der Österreicher,male Austrian,noun,lesson06
der Österreicherin,female Austrian,noun,lesson06
der Schweizer,male swiss,noun,lesson06
der Schweizerin,female swiss,noun,lesson06
die Blume,flower,noun,lesson06
der Chef,male boss,noun,lesson06
die Chefin,female boss,noun,lesson06
der Geburtstag,birthday,noun,lesson06
das Geschenk,gift,noun,lesson06
der Kollege,male colleague,noun,lesson06
die Kollegin,female colleague,noun,lesson06
der Kuchen,cake,noun,lesson06
die Pause,break,noun,lesson06
die Bank,bench,noun,lesson06
der Baum,tree,noun,lesson06
der Berg,mountain,noun,lesson06
das Haus,house,noun,lesson06
der Schnee,snow,noun,lesson06
das Geld,money,noun,lesson06


der Arbeitsplatz,workplace,noun,lesson06
am Arbeitsplats,at the workplace,phrase,lesson06